[gd_scene load_steps=7 format=2]

[ext_resource path="res://entity/npc/BaseNPC.gd" type="Script" id=1]
[ext_resource path="res://statemachine/StateMachine.gd" type="Script" id=2]
[ext_resource path="res://util/audio/Simple3DAudioPlayer.gd" type="Script" id=3]
[ext_resource path="res://entity/npc/TestEnemy/states/IdleState.gd" type="Script" id=4]

[sub_resource type="CapsuleMesh" id=1]

[sub_resource type="CapsuleShape" id=2]
radius = 5.50936
height = 3.78616

[node name="TestEnemy" type="KinematicBody"]
transform = Transform( 5, 0, 0, 0, 5, 0, 0, 0, 5, 0, 7.46577, 0 )
script = ExtResource( 1 )

[node name="MeshInstance" type="MeshInstance" parent="."]
transform = Transform( 5, 0, 0, 0, -8.14603e-07, -5, 0, 5, -8.14603e-07, 0, 4.98355, 0 )
mesh = SubResource( 1 )
material/0 = null

[node name="CollisionShape" type="CollisionShape" parent="."]
transform = Transform( 1, 0, 0, 0, -4.37114e-08, -1, 0, 1, -4.37114e-08, 0, 4.82642, 0 )
shape = SubResource( 2 )

[node name="Sound_Player" type="Spatial" parent="."]
script = ExtResource( 3 )

[node name="3D_Sound_Stream" type="AudioStreamPlayer3D" parent="Sound_Player"]
max_distance = 100.0

[node name="StateMachine" type="Node" parent="."]
script = ExtResource( 2 )
initial_state = NodePath("Idle")

[node name="Idle" type="Node" parent="StateMachine"]
script = ExtResource( 4 )
